[gd_scene load_steps=7 format=3 uid="uid://bepgwi4468ye1"]

[ext_resource type="Script" path="res://puzzle/piece.gd" id="1"]

[sub_resource type="CircleShape2D" id="2"]

[sub_resource type="Animation" id="3"]
length = 0.001
tracks/0/type = "value"
tracks/0/imported = false
tracks/0/enabled = true
tracks/0/path = NodePath(".:scale")
tracks/0/interp = 1
tracks/0/loop_wrap = true
tracks/0/keys = {
"times": PackedFloat32Array(0),
"transitions": PackedFloat32Array(1),
"update": 0,
"values": [Vector2(1, 1)]
}
tracks/1/type = "value"
tracks/1/imported = false
tracks/1/enabled = true
tracks/1/path = NodePath(".:rotation")
tracks/1/interp = 1
tracks/1/loop_wrap = true
tracks/1/keys = {
"times": PackedFloat32Array(0),
"transitions": PackedFloat32Array(1),
"update": 0,
"values": [0.0]
}

[sub_resource type="Animation" id="4"]
resource_name = "pop"
length = 0.4
step = 0.05
tracks/0/type = "value"
tracks/0/imported = false
tracks/0/enabled = true
tracks/0/path = NodePath(".:scale")
tracks/0/interp = 1
tracks/0/loop_wrap = true
tracks/0/keys = {
"times": PackedFloat32Array(0, 0.15, 0.4),
"transitions": PackedFloat32Array(1, 1, 1),
"update": 0,
"values": [Vector2(1, 1), Vector2(1.2, 1.2), Vector2(1, 1)]
}
tracks/1/type = "method"
tracks/1/imported = false
tracks/1/enabled = false
tracks/1/path = NodePath(".")
tracks/1/interp = 1
tracks/1/loop_wrap = true
tracks/1/keys = {
"times": PackedFloat32Array(0.4),
"transitions": PackedFloat32Array(1),
"values": [{
"args": [true],
"method": &"set_enabled"
}]
}

[sub_resource type="Animation" id="5"]
resource_name = "rotate90"
length = 0.25
tracks/0/type = "value"
tracks/0/imported = false
tracks/0/enabled = true
tracks/0/path = NodePath(".:rotation")
tracks/0/interp = 1
tracks/0/loop_wrap = true
tracks/0/keys = {
"times": PackedFloat32Array(0, 0.2),
"transitions": PackedFloat32Array(1, 1),
"update": 0,
"values": [0.0, 90.0]
}

[sub_resource type="AnimationLibrary" id="AnimationLibrary_6oqf5"]
_data = {
"RESET": SubResource("3"),
"pop": SubResource("4"),
"rotate90": SubResource("5")
}

[node name="piece" type="Control"]
custom_minimum_size = Vector2(64, 64)
layout_mode = 3
anchors_preset = 0
offset_right = 64.0
offset_bottom = 64.0
pivot_offset = Vector2(32, 32)
mouse_filter = 1
script = ExtResource("1")

[node name="texture" type="Polygon2D" parent="."]
polygon = PackedVector2Array(0, 0, 64, 0, 64, 64, 0, 64)

[node name="outline" type="Line2D" parent="."]
points = PackedVector2Array(0, 0, 64, 0, 64, 64, 0, 64, 0, 0)
width = 1.8
default_color = Color(0.258824, 0.266667, 0.294118, 1)
joint_mode = 2
begin_cap_mode = 2
end_cap_mode = 2

[node name="marker" type="Area2D" parent="."]
z_index = 1
position = Vector2(32, 32)
collision_layer = 2
collision_mask = 6
input_pickable = false

[node name="collision_shape" type="CollisionShape2D" parent="marker"]
shape = SubResource("2")

[node name="connected_pieces" type="Node2D" parent="."]

[node name="animation_player" type="AnimationPlayer" parent="."]
libraries = {
"": SubResource("AnimationLibrary_6oqf5")
}

[connection signal="gui_input" from="." to="." method="_on_piece_gui_input"]
