; Engine configuration file.
; It's best edited using the editor UI and not directly,
; since the parameters that go here are not all obvious.
;
; Format:
;   [section] ; section goes between []
;   param=value ; assign values to parameters

config_version=5

[application]

config/name="jigsaw"
run/main_scene="res://ui/ui.tscn"
config/quit_on_go_back=false
config/features=PackedStringArray("4.3")
boot_splash/show_image=false
config/icon="res://icon.svg"

[autoload]

Global="*res://puzzle/global.gd"

[display]

window/size/viewport_width=295
window/size/viewport_height=500
window/stretch/mode="canvas_items"
window/stretch/aspect="expand"
window/handheld/orientation=1

[input_devices]

pointing/emulate_touch_from_mouse=true

[internationalization]

locale/translations=PackedStringArray("res://ui/lang.en.translation", "res://ui/lang.de.translation")

[physics]

common/enable_pause_aware_picking=true

[rendering]

renderer/rendering_method.mobile="gl_compatibility"
textures/vram_compression/import_etc2_astc=true
anti_aliasing/screen_space_roughness_limiter/enabled=false
environment/defaults/default_clear_color=Color(0.862745, 0.862745, 0.862745, 1)
quality/depth/hdr=false
