[gd_scene load_steps=3 format=3 uid="uid://3a7xqkvt1big"]

[ext_resource type="Theme" uid="uid://c4noec3a4iici" path="res://ui/theme.tres" id="1"]
[ext_resource type="Script" path="res://ui/file_dialog.gd" id="2"]

[node name="panel2" type="Panel"]
anchors_preset = 15
anchor_right = 1.0
anchor_bottom = 1.0
offset_top = 100.0
grow_horizontal = 2
grow_vertical = 2
size_flags_horizontal = 3
size_flags_vertical = 3
theme = ExtResource("1")
script = ExtResource("2")
metadata/_edit_use_anchors_ = true

[node name="v_box_container" type="VBoxContainer" parent="."]
layout_mode = 1
anchors_preset = 15
anchor_right = 1.0
anchor_bottom = 1.0
grow_horizontal = 2
grow_vertical = 2
theme_override_constants/separation = 0

[node name="label" type="Label" parent="v_box_container"]
layout_mode = 2
text = "CHOOSE_PATH"

[node name="label2" type="Label" parent="v_box_container"]
visible = false
layout_mode = 2
text = "\"/path/\""
max_lines_visible = 3

[node name="label3" type="Label" parent="v_box_container"]
layout_mode = 2
text = "CONTAINS_PICTURE_AMOUNT"
max_lines_visible = 3

[node name="scroll_container" type="ScrollContainer" parent="v_box_container"]
layout_mode = 2
size_flags_horizontal = 3
size_flags_vertical = 3

[node name="grid_container" type="GridContainer" parent="v_box_container/scroll_container"]
unique_name_in_owner = true
layout_mode = 2
size_flags_horizontal = 3
columns = 2

[node name="button" type="Button" parent="v_box_container"]
layout_mode = 2
text = "BACK"

[connection signal="pressed" from="v_box_container/button" to="." method="_on_button_pressed"]
